Analysis
…
df_ori_cul

(ideotype_vector <- c(rep("l", 9), rep("h", 13)))
##  [1] "l" "l" "l" "l" "l" "l" "l" "l" "l" "h" "h" "h" "h" "h" "h" "h" "h" "h" "h"
## [20] "h" "h" "h"
mgidi_cul_ori <- 
  mgidi(df_ori_cul,                 # a two-way table
        ideotype = ideotype_vector, # ideotype vector
        SI = 50)                    # select two treatments
## 
## -------------------------------------------------------------------------------
## Principal Component Analysis
## -------------------------------------------------------------------------------
## # A tibble: 22 x 4
##    PC    Eigenvalues `Variance (%)` `Cum. variance (%)`
##    <chr>       <dbl>          <dbl>               <dbl>
##  1 PC1         14.2            64.4                64.4
##  2 PC2          5.24           23.8                88.2
##  3 PC3          2.58           11.8               100  
##  4 PC4          0               0                 100  
##  5 PC5          0               0                 100  
##  6 PC6          0               0                 100  
##  7 PC7          0               0                 100  
##  8 PC8          0               0                 100  
##  9 PC9          0               0                 100  
## 10 PC10         0               0                 100  
## # ... with 12 more rows
## -------------------------------------------------------------------------------
## Factor Analysis - factorial loadings after rotation-
## -------------------------------------------------------------------------------
## # A tibble: 22 x 6
##    VAR     FA1   FA2   FA3 Communality Uniquenesses
##    <chr> <dbl> <dbl> <dbl>       <dbl>        <dbl>
##  1 NNCF  -0.72 -0.67 -0.17           1            0
##  2 WNCF  -0.65 -0.75 -0.14           1            0
##  3 AWNCF  0.63  0.49  0.6            1            0
##  4 WUE    1     0.04  0.03           1            0
##  5 NDBF  -0.11  0.07 -0.99           1            0
##  6 NDFF  -0.16 -0.24 -0.96           1            0
##  7 NDBH  -0.17  0.07 -0.98           1            0
##  8 PHYL   0.6   0.79 -0.12           1            0
##  9 TA     0.84  0.1   0.54           1            0
## 10 NCF    0.84  0.42  0.35           1            0
## # ... with 12 more rows
## -------------------------------------------------------------------------------
## Comunalit Mean: 1 
## -------------------------------------------------------------------------------
## Selection differential 
## -------------------------------------------------------------------------------
## # A tibble: 22 x 8
##    VAR    Factor       Xo       Xs        SD  SDperc sense     goal
##    <chr>  <chr>     <dbl>    <dbl>     <dbl>   <dbl> <chr>    <dbl>
##  1 NNCF   FA1        7.20     7.86    0.650    9.02  decrease     0
##  2 AWNCF  FA1        8.74     8.70   -0.0425  -0.486 decrease   100
##  3 WUE    FA1      116.     101.    -15.0    -12.9   decrease   100
##  4 TA     FA1        1.42     1.35   -0.0700  -4.93  decrease   100
##  5 NCF    FA1       23.5     25.0     1.52     6.48  increase   100
##  6 TNF    FA1       30.7     32.8     2.16     7.04  increase   100
##  7 WCF    FA1      359.     395.     36.9     10.3   increase   100
##  8 TWF    FA1      413.     442.     29.1      7.05  increase   100
##  9 FY     FA1    30957.   33137.   2180.       7.04  increase   100
## 10 TSS_TA FA1        5.39     5.66    0.268    4.96  increase   100
## # ... with 12 more rows
## ------------------------------------------------------------------------------
## Selected genotypes
## -------------------------------------------------------------------------------
## IMP_ALB NAC_CAM
## -------------------------------------------------------------------------------
…
df_sub <- 
  pred_vals %>% 
  means_by(SUB) %>% 
  column_to_rownames("SUB")

mgidi_sub <-
  mgidi(df_sub,  # a two-way table
        ideotype = ideotype_vector, # ideotype vector
        SI = 50) # select the top two substrates
## 
## -------------------------------------------------------------------------------
## Principal Component Analysis
## -------------------------------------------------------------------------------
## # A tibble: 22 x 4
##    PC    Eigenvalues `Variance (%)` `Cum. variance (%)`
##    <chr>       <dbl>          <dbl>               <dbl>
##  1 PC1         14.9            67.8                67.8
##  2 PC2          3.95           18.0                85.8
##  3 PC3          3.12           14.2               100  
##  4 PC4          0               0                 100  
##  5 PC5          0               0                 100  
##  6 PC6          0               0                 100  
##  7 PC7          0               0                 100  
##  8 PC8          0               0                 100  
##  9 PC9          0               0                 100  
## 10 PC10         0               0                 100  
## # ... with 12 more rows
## -------------------------------------------------------------------------------
## Factor Analysis - factorial loadings after rotation-
## -------------------------------------------------------------------------------
## # A tibble: 22 x 6
##    VAR     FA1   FA2   FA3 Communality Uniquenesses
##    <chr> <dbl> <dbl> <dbl>       <dbl>        <dbl>
##  1 NNCF  -0.99  0.03 -0.17           1            0
##  2 WNCF  -0.83  0.21 -0.52           1            0
##  3 AWNCF  0.26  0.19 -0.95           1            0
##  4 WUE    0.88 -0.33 -0.35           1            0
##  5 NDBF   0.74  0.14 -0.66           1            0
##  6 NDFF   0.91 -0.33 -0.25           1            0
##  7 NDBH   0.85 -0.46 -0.27           1            0
##  8 PHYL   0.88 -0.01 -0.47           1            0
##  9 TA     0.17 -0.71 -0.69           1            0
## 10 NCF    0.96 -0.21 -0.18           1            0
## # ... with 12 more rows
## -------------------------------------------------------------------------------
## Comunalit Mean: 1 
## -------------------------------------------------------------------------------
## Selection differential 
## -------------------------------------------------------------------------------
## # A tibble: 22 x 8
##    VAR   Factor     Xo     Xs      SD SDperc sense     goal
##    <chr> <chr>   <dbl>  <dbl>   <dbl>  <dbl> <chr>    <dbl>
##  1 NNCF  FA1      7.20   7.89   0.690   9.58 decrease     0
##  2 WNCF  FA1     65.4   69.3    3.97    6.07 decrease     0
##  3 WUE   FA1    116.    83.2  -32.6   -28.1  decrease   100
##  4 NDBF  FA1     57.7   53.9   -3.80   -6.58 decrease   100
##  5 NDFF  FA1     76.3   71.9   -4.36   -5.72 decrease   100
##  6 NDBH  FA1     77.8   75.5   -2.30   -2.95 decrease   100
##  7 PHYL  FA1    164.   147.   -17.4   -10.6  decrease   100
##  8 NCF   FA1     23.5   29.0    5.52   23.5  increase   100
##  9 TNF   FA1     30.7   36.9    6.20   20.2  increase   100
## 10 WCF   FA1    359.   462.   103.     28.8  increase   100
## # ... with 12 more rows
## ------------------------------------------------------------------------------
## Selected genotypes
## -------------------------------------------------------------------------------
## S4 S3
## -------------------------------------------------------------------------------
…
